Retrieve earthquake information data from PHIVOLCS bulletins — eq_data • lindol
…
simplify
Logical. Should output be simplified into a data.frame or
tibble? Default is TRUE. Otherwise, a list of processed tibbles of
earthquake monitoring data.

    Value

    A tibble of processed earthquake data.

    Examples

eq_data()
#> # A tibble: 1,248 × 7
#>    date_time_retrieved date_time           latitude longitude depth magnitude
#>    <dttm>              <dttm>                 <dbl>     <dbl> <dbl>     <dbl>
#>  1 2024-08-16 06:41:57 2024-08-16 13:48:00     5.02      126.   189       3.9
#>  2 2024-08-16 06:41:57 2024-08-16 13:25:00     7.83      127.    27       2.4
#>  3 2024-08-16 06:41:57 2024-08-16 12:28:00     6.38      124.    19       2.2
#>  4 2024-08-16 06:41:57 2024-08-16 10:40:00    12.8       125.    19       2.6
#>  5 2024-08-16 06:41:57 2024-08-16 10:31:00    10.0       126.    88       4.1
#>  6 2024-08-16 06:41:57 2024-08-16 10:09:00     8.67      126.    30       2.3
#>  7 2024-08-16 06:41:57 2024-08-16 09:53:00    15.0       120.    10       3  
#>  8 2024-08-16 06:41:57 2024-08-16 09:02:00    19.6       121.     1       2.9
#>  9 2024-08-16 06:41:57 2024-08-16 08:20:00    13.2       120.    27       3.7
#> 10 2024-08-16 06:41:57 2024-08-16 07:48:00    12.2       125.    44       1.7
#> # ℹ 1,238 more rows
#> # ℹ 1 more variable: location <chr>
…
